Justin_herman
…
Load in data and create summaries for all the columns with functional

## Warning: Missing column names filled in: 'X229' [229], 'X230' [230]

## Parsed with column specification:
## cols(
##   .default = col_character()
## )

## See spec(...) for full column specifications.

## # A tibble: 2,895 x 2
##    TimeSpentStudying ProveKnowledgeSelect
##    <chr>             <chr>               
##  1 <NA>              <NA>                
##  2 <NA>              <NA>                
##  3 <NA>              <NA>                
##  4 <NA>              <NA>                
##  5 <NA>              <NA>                
##  6 <NA>              <NA>                
##  7 <NA>              <NA>                
##  8 <NA>              <NA>                
##  9 <NA>              <NA>                
## 10 <NA>              <NA>                
## # ... with 2,885 more rows
…
## 6 I don't write code to analyze data     8   0.282
## 
## [[4]]
## # A tibble: 6 x 3
##   FirstTrainingSelect                         count percent
##   <chr>                                       <int>   <dbl>
## 1 University courses                            975   34.4 
## 2 Self-taught                                   777   27.4 
## 3 Online courses (coursera, udemy, edx, etc.)   756   26.7 
## 4 Work                                          250    8.82
## 5 Kaggle competitions                            44    1.55
## 6 Other                                          33    1.16
## 
## [[5]]
## # A tibble: 25 x 3
##    EmployerIndustry   count percent
##    <chr>              <int>   <dbl>
##  1 Academic             638   23.8 
##  2 Technology           485   18.1 
##  3 Financial            243    9.07
##  4 Other                216    8.07
##  5 Mix of fields        206    7.69
##  6 Internet-based       158    5.90
##  7 Government           155    5.79
##  8 Manufacturing         93    3.47
##  9 CRM/Marketing         84    3.14
## 10 Telecommunications    67    2.50
## # ... with 15 more rows
## 
## [[6]]
## # A tibble: 27 x 3
##    EmployerSize             count percent
##    <chr>                    <int>   <dbl>
##  1 10,000 or more employees   454   19.9 
##  2 100 to 499 employees       379   16.6 
##  3 1,000 to 4,999 employees   345   15.1 
##  4 20 to 99 employees         340   14.9 
##  5 500 to 999 employees       171    7.48
##  6 10 to 19 employees         148    6.47
##  7 5,000 to 9,999 employees   146    6.38
##  8 Fewer than 10 employees    134    5.86
##  9 I don't know                94    4.11
## 10 I prefer not to answer      24    1.05
## # ... with 17 more rows
## 
## [[7]]
## # A tibble: 22 x 3
##    EmployerSizeChange       count percent
##    <chr>                    <int>   <dbl>
##  1 Increased slightly         828  37.1  
##  2 Stayed the same            710  31.8  
##  3 Increased significantly    453  20.3  
##  4 Decreased slightly         135   6.05 
##  5 Decreased significantly     58   2.60 
##  6 1,000 to 4,999 employees     7   0.314
##  7 Fewer than 10 employees      7   0.314
##  8 500 to 999 employees         5   0.224
##  9 10,000 or more employees     4   0.179
## 10 20 to 99 employees           4   0.179
## # ... with 12 more rows
…
## 12 Programmer                              61   2.11 
## 13 Data Miner                              42   1.45 
## 14 DBA/Database Engineer                   42   1.45 
## 15 Operations Research Practitioner        28   0.969
## 
## [[2]]
## # A tibble: 3 x 3
##   TitleFit  count percent
##   <chr>     <int>   <dbl>
## 1 Fine       1812    65.0
## 2 Perfectly   568    20.4
## 3 Poorly      407    14.6
## 
## [[3]]
## # A tibble: 874 x 3
##    PastJobTitlesSelect                             count percent
##    <chr>                                           <int>   <dbl>
##  1 Researcher                                        218    8.02
##  2 Software Developer/Software Engineer              118    4.34
##  3 Other                                             111    4.09
##  4 Data Analyst                                       90    3.31
##  5 Engineer                                           73    2.69
##  6 I haven't started working yet                      57    2.10
##  7 Programmer                                         55    2.02
##  8 Business Analyst                                   51    1.88
##  9 Programmer,Software Developer/Software Engineer    38    1.40
## 10 Data Scientist                                     36    1.32
## # ... with 864 more rows
## 
## [[4]]
## # A tibble: 60 x 3
##    CurrentEmployerType                                         count perc~
##    <chr>                                                       <int> <dbl>
##  1 Employed by college or university                             663 23.4 
##  2 Employed by a company that performs advanced analytics        485 17.1 
##  3 Employed by professional services/consulting firm             459 16.2 
##  4 Employed by a company that doesn't perform advanced analyt~   303 10.7 
##  5 Employed by company that makes advanced analytic software     264  9.32
##  6 Self-employed                                                 189  6.67
##  7 Employed by government                                        159  5.61
##  8 Employed by non-profit or NGO                                  56  1.98
##  9 Employed by company that makes advanced analytic software,~    46  1.62
## 10 Employed by professional services/consulting firm,Employed~    37  1.31
## # ... with 50 more rows
…
US_only_df$CompensationAmount <- str_replace_all(US_only_df$CompensationAmount,"\\D+","") 

us_money <- Academic_exploration("CompensationAmount",US_only_df)
us_money

## # A tibble: 121 x 3
##    CompensationAmount count percent
##    <chr>              <int>   <dbl>
##  1 100000                15    4.60
##  2 140000                15    4.60
##  3 150000                14    4.29
##  4 80000                 11    3.37
##  5 90000                 11    3.37
##  6 120000                10    3.07
##  7 50000                 10    3.07
##  8 65000                 10    3.07
##  9 125000                 9    2.76
## 10 70000                  9    2.76
## # ... with 111 more rows
…
